…
 Let's clean the names so they fit within the tydiverse style guide
 

```r
dat <- dat_original %>% 
  clean_names()

dat
```

```
## # A tibble: 48 × 18
##    site    year month depth   p_h conductivity   bod ammoniacal_nitrogen
##    <chr>  <dbl> <dbl> <dbl> <dbl>        <dbl> <dbl>               <dbl>
##  1 Site 1  1997    11 NA     7.62          511   7.1                 0.1
##  2 Site 1  1999     1  0.4   8.51          778   7.9                 0.2
##  3 Site 1  1999     4  0.25  7.71          517   3.6                 0.1
##  4 Site 1  1999     7  0.4   7.77         1892   3.4                 0.1
##  5 Site 1  1999    10  0.5   8.04         1600   4.2                 1.2
##  6 Site 1  2000     1  0.2   8.06          889   4.5                 0.8
##  7 Site 1  2000     4  0.75  7.72         1010   2                   0.1
##  8 Site 1  2000     7  0.1   7.94         1460   5.5                 0.3
##  9 Site 1  2000    10  0.75  7.21         1050   3.1                 0.6
## 10 Site 1  2001     1  0.1   7.7          1760  14                   3.4
## # … with 38 more rows, and 10 more variables: total_oxidised_nitrogen <dbl>,
## #   suspended_solids <dbl>, chloride <dbl>, sulphate <dbl>,
## #   total_calcium <dbl>, total_zinc <dbl>, total_cadmium <dbl>,
## #   total_lead <dbl>, total_nickel <dbl>, total_phosphate <dbl>
```
…
